{
    "companyInfo": {
        "companyName": "Mayer, Monahan and Christiansen",
        "companyMotto": "virtual mesh e-commerce",
        "companyEst": "2021-01-24T11:39:38.010Z"
    },
    "employees": [
        {
            "id": "6c35f8e6-ba2b-4007-92c3-ccd8d7ff3fe1",
            "avatar": "https://picsum.photos/200/300",
            "firstName": "Grace",
            "lastName": "Ritchie",
            "jobTitle": "Principal Brand Facilitator",
            "contactNo": "0461 681 869",
            "address": "Bartell Crest Sophieview, Queensland",
            "age": 47,
            "bio": "Maiores vel recusandae numquam voluptate vitae. Asperiores aliquam ab. Et consequatur quia aut sint. Dolorem quo corporis dolor. Repellendus rem quia enim nesciunt. Architecto ipsam error et libero.",
            "dateJoined": "2020-12-25T07:17:39.639Z"
        },
        {
            "id": "3ddf0798-4fbb-4b93-9ae5-ae937c9c6fe3",
            "avatar": "https://picsum.photos/200/300",
            "firstName": "Chloe",
            "lastName": "Jackson",
            "jobTitle": "Senior Identity Facilitator",
            "contactNo": "0412 120 562",
            "address": "Jade Mews Shieldsbury, Victoria",
            "age": 29,
            "bio": "Qui iste nobis error voluptatibus placeat. Iure corrupti dolore aspernatur odio vitae sed. Quibusdam qui consequatur qui et iure dicta quia eveniet sunt. Doloribus porro est et et.",
            "dateJoined": "2017-04-28T07:06:22.294Z"
        },
        {
            "id": "250f2656-2609-4891-b0cb-80373301b82d",
            "avatar": "https://picsum.photos/200/300",
            "firstName": "Xavier",
            "lastName": "Jenkins",
            "jobTitle": "Legacy Markets Architect",
            "contactNo": "0420 331 080",
            "address": "O'connell Knoll Kaistad, Western Australia",
            "age": 61,
            "bio": "Esse mollitia voluptates aperiam libero quia eaque. Enim doloremque voluptas in ab consequatur ea qui voluptatibus dicta. Mollitia eum eveniet voluptatem molestias odit facere sit maxime neque.",
            "dateJoined": "2023-02-20T10:58:13.472Z"
        },
        {
            "id": "357dc005-f0df-450d-8d18-c590ae1001e2",
            "avatar": "https://picsum.photos/200/300",
            "firstName": "Caitlin",
            "lastName": "Mccullough",
            "jobTitle": "Chief Quality Engineer",
            "contactNo": "0483 837 408",
            "address": "Ella Drive New Mollyland, Australian Capital Territory",
            "age": 33,
            "bio": "Labore quo molestias cupiditate. Laboriosam quia odit consequatur autem magni minima cumque. Non sit a necessitatibus.",
            "dateJoined": "2020-12-27T20:03:33.936Z"
        },
        {
            "id": "6647289d-cb8f-4e45-ac0c-f9889aa2e31e",
            "avatar": "https://picsum.photos/200/300",
            "firstName": "David",
            "lastName": "Bayer",
            "jobTitle": "Product Markets Architect",
            "contactNo": "0483 165 565",
            "address": "Nathan Place O'connerchester, Australian Capital Territory",
            "age": 33,
            "bio": "Amet ut et id consequatur assumenda. Qui quia fugit. Quo architecto qui explicabo et saepe non repellendus sit.",
            "dateJoined": "2022-07-22T15:04:37.021Z"
        },
        {
            "id": "a691856a-0ca9-4723-9c37-54e601153729",
            "avatar": "https://picsum.photos/200/300",
            "firstName": "Abbey",
            "lastName": "Cox",
            "jobTitle": "Global Intranet Technician",
            "contactNo": "0475 521 338",
            "address": "Aidan Trail New Madisonburgh, Victoria",
            "age": 56,
            "bio": "Minima aut autem qui est. Cupiditate dolorum quae quasi possimus. Quaerat ad eveniet incidunt quia.",
            "dateJoined": "2018-07-25T12:50:47.192Z"
        },
        {
            "id": "676b1dc4-3727-4595-8922-d3e25543e910",
            "avatar": "https://picsum.photos/200/300",
            "firstName": "Levi",
            "lastName": "Windler",
            "jobTitle": "District Optimization Architect",
            "contactNo": "0402 734 835",
            "address": "Stephanie Manor Gemmaland, Northern Territory",
            "age": 35,
            "bio": "Dolorem porro delectus quia tempora voluptatum eius tenetur rem. Rem voluptas sequi sapiente ut sit quo quae odit quis. Quasi magnam autem ea illo repudiandae. Ut et nam.",
            "dateJoined": "2022-12-20T23:24:24.182Z"
        },
        {
            "id": "5963c96e-b919-46a0-9ced-5b69ce030234",
            "avatar": "https://picsum.photos/200/300",
            "firstName": "Grace",
            "lastName": "Mills",
            "jobTitle": "Corporate Security Strategist",
            "contactNo": "0400 572 298",
            "address": "Anna Hill New Dylanfurt, Northern Territory",
            "age": 60,
            "bio": "Rem ut non maiores magni molestias. Eaque aut dolorem a quia et hic ea. Exercitationem adipisci asperiores molestias sed voluptas provident distinctio et qui. Aspernatur impedit accusantium dolor eius amet aperiam fugit. Est repudiandae voluptate ipsa accusantium voluptatem saepe. Autem consequuntur qui sed minus voluptas.",
            "dateJoined": "2023-01-11T15:37:18.005Z"
        },
        {
            "id": "63a58bf5-08f5-4429-80c6-ed310f469767",
            "avatar": "https://picsum.photos/200/300",
            "firstName": "Joseph",
            "lastName": "James",
            "jobTitle": "National Accountability Supervisor",
            "contactNo": "0485 928 397",
            "address": "Sauer Circuit Justinville, Australian Capital Territory",
            "age": 30,
            "bio": "Voluptatibus dignissimos esse. Quo corporis sit aut reiciendis ut quo dolore. In consequatur error voluptatibus fugiat.",
            "dateJoined": "2023-10-04T14:55:55.387Z"
        },
        {
            "id": "a482ab8e-eeb4-458d-9a32-10e49ef541df",
            "avatar": "https://picsum.photos/200/300",
            "firstName": "Tahlia",
            "lastName": "Goldner",
            "jobTitle": "Corporate Division Supervisor",
            "contactNo": "0425 557 635",
            "address": "Dickinson Avenue O'keefeberg, Victoria",
            "age": 66,
            "bio": "Odit quis autem inventore. Odio et et molestiae id sint quia alias sit qui. Qui doloribus quae amet quisquam nostrum. Magni porro aut velit temporibus eum placeat. Enim nulla voluptas nisi quo hic porro exercitationem. Quam laborum architecto architecto at quae vel et et est.",
            "dateJoined": "2018-08-05T11:19:04.090Z"
        },
        {
            "id": "a5a40bf7-0d7e-4b8d-a07f-c048e8c8d332",
            "avatar": "https://picsum.photos/200/300",
            "firstName": "Jett",
            "lastName": "Kirlin",
            "jobTitle": "Legacy Creative Orchestrator",
            "contactNo": "0448 474 522",
            "address": "Charlie Pass Samuelmouth, Queensland",
            "age": 61,
            "bio": "Facilis nesciunt est perspiciatis perspiciatis corrupti eum quae. Ut tempore eum voluptates. Et corrupti sequi similique eos quasi ut ullam voluptas. Id eligendi dolorum. Aliquam et cumque voluptas sapiente quia sunt voluptatem reiciendis. Eum doloremque a.",
            "dateJoined": "2023-08-22T19:50:08.044Z"
        },
        {
            "id": "4f358bf4-2a13-4fd0-966a-739c8b2f9070",
            "avatar": "https://picsum.photos/200/300",
            "firstName": "Jett",
            "lastName": "Rowe",
            "jobTitle": "National Solutions Technician",
            "contactNo": "0432 308 288",
            "address": "Hermiston Island Leviberg, Queensland",
            "age": 39,
            "bio": "Error molestiae tempora voluptatem sed esse. Dolorum consequuntur est facilis facilis placeat nisi ea. Atque neque necessitatibus beatae minus aut voluptas autem. Inventore ex adipisci mollitia est quia eum porro. Quo et esse. Quia praesentium nesciunt.",
            "dateJoined": "2018-12-06T17:21:38.561Z"
        }
    ]
}